<mxfile host="65bd71144e">
    <diagram id="WjTKfr17cYUkq7KTRpsA" name="Page-1">
        <mxGraphModel dx="1148" dy="743" grid="0" gridSize="10" guides="1" tooltips="1" connect="1" arrows="1" fold="1" page="0" pageScale="1" pageWidth="850" pageHeight="1100" math="0" shadow="0">
            <root>
                <mxCell id="0"/>
                <mxCell id="1" parent="0"/>
                <mxCell id="2" value="Organization" style="swimlane;whiteSpace=wrap;html=1;fillColor=#FFFFFF;" parent="1" vertex="1">
                    <mxGeometry x="107" y="144" width="200" height="124" as="geometry"/>
                </mxCell>
                <mxCell id="3" value="&lt;b&gt;Orderer org.bt&lt;/b&gt;" style="text;html=1;align=center;verticalAlign=middle;resizable=0;points=[];autosize=1;strokeColor=none;fillColor=none;" parent="2" vertex="1">
                    <mxGeometry x="14" y="37" width="99" height="26" as="geometry"/>
                </mxCell>
                <mxCell id="5" value="&lt;b&gt;Orderer&lt;/b&gt;&lt;br&gt;solo" style="rounded=0;whiteSpace=wrap;html=1;align=center;fillColor=#99FFFF;" parent="2" vertex="1">
                    <mxGeometry x="69" y="63" width="120" height="49" as="geometry"/>
                </mxCell>
                <mxCell id="9" value="orderer" style="text;html=1;align=center;verticalAlign=middle;resizable=0;points=[];autosize=1;strokeColor=none;fillColor=none;" parent="2" vertex="1">
                    <mxGeometry x="3" y="70" width="57" height="26" as="geometry"/>
                </mxCell>
                <mxCell id="19" value="" style="group" parent="1" vertex="1" connectable="0">
                    <mxGeometry x="393" y="144" width="200" height="124" as="geometry"/>
                </mxCell>
                <mxCell id="6" value="Organization" style="swimlane;whiteSpace=wrap;html=1;" parent="19" vertex="1">
                    <mxGeometry width="200" height="124" as="geometry"/>
                </mxCell>
                <mxCell id="7" value="&lt;b&gt;Bank&amp;nbsp; org.bt&lt;/b&gt;" style="text;html=1;align=center;verticalAlign=middle;resizable=0;points=[];autosize=1;strokeColor=none;fillColor=none;" parent="6" vertex="1">
                    <mxGeometry x="21" y="27" width="88" height="26" as="geometry"/>
                </mxCell>
                <mxCell id="8" value="&lt;b&gt;Peer&lt;/b&gt;&lt;br&gt;user:1" style="rounded=0;whiteSpace=wrap;html=1;container=1;fillColor=#9999FF;" parent="6" vertex="1">
                    <mxGeometry x="69" y="63" width="120" height="49" as="geometry"/>
                </mxCell>
                <mxCell id="10" value="bob" style="text;html=1;align=center;verticalAlign=middle;resizable=0;points=[];autosize=1;strokeColor=none;fillColor=none;" parent="19" vertex="1">
                    <mxGeometry x="16" y="71" width="38" height="26" as="geometry"/>
                </mxCell>
                <mxCell id="21" value="" style="group" parent="1" vertex="1" connectable="0">
                    <mxGeometry x="397" y="321" width="200" height="124" as="geometry"/>
                </mxCell>
                <mxCell id="11" value="Organization" style="swimlane;whiteSpace=wrap;html=1;" parent="21" vertex="1">
                    <mxGeometry width="200" height="124" as="geometry"/>
                </mxCell>
                <mxCell id="12" value="&lt;b&gt;Bank&amp;nbsp; org.bt&lt;/b&gt;" style="text;html=1;align=center;verticalAlign=middle;resizable=0;points=[];autosize=1;strokeColor=none;fillColor=none;" parent="11" vertex="1">
                    <mxGeometry x="21" y="27" width="88" height="26" as="geometry"/>
                </mxCell>
                <mxCell id="13" value="&lt;b&gt;Peer&lt;/b&gt;&lt;br&gt;user:1" style="rounded=0;whiteSpace=wrap;html=1;fillColor=#9999FF;" parent="11" vertex="1">
                    <mxGeometry x="69" y="63" width="120" height="49" as="geometry"/>
                </mxCell>
                <mxCell id="20" value="bnb" style="text;html=1;align=center;verticalAlign=middle;resizable=0;points=[];autosize=1;strokeColor=none;fillColor=none;" parent="21" vertex="1">
                    <mxGeometry x="14" y="68" width="38" height="26" as="geometry"/>
                </mxCell>
                <mxCell id="22" value="" style="group" parent="1" vertex="1" connectable="0">
                    <mxGeometry x="397" y="494" width="200" height="124" as="geometry"/>
                </mxCell>
                <mxCell id="14" value="bnb" style="text;html=1;align=center;verticalAlign=middle;resizable=0;points=[];autosize=1;strokeColor=none;fillColor=none;" parent="22" vertex="1">
                    <mxGeometry x="120" y="77" width="38" height="26" as="geometry"/>
                </mxCell>
                <mxCell id="15" value="Organization" style="swimlane;whiteSpace=wrap;html=1;" parent="22" vertex="1">
                    <mxGeometry width="200" height="124" as="geometry"/>
                </mxCell>
                <mxCell id="16" value="&lt;b&gt;RegulatoryAuthourity&amp;nbsp; org.bt&lt;/b&gt;" style="text;html=1;align=center;verticalAlign=middle;resizable=0;points=[];autosize=1;strokeColor=none;fillColor=none;" parent="15" vertex="1">
                    <mxGeometry x="7" y="26" width="182" height="26" as="geometry"/>
                </mxCell>
                <mxCell id="17" value="&lt;b&gt;Peer&lt;/b&gt;&lt;br&gt;user:1" style="rounded=0;whiteSpace=wrap;html=1;fillColor=#9999FF;" parent="15" vertex="1">
                    <mxGeometry x="69" y="63" width="120" height="49" as="geometry"/>
                </mxCell>
                <mxCell id="18" value="reg" style="text;html=1;align=center;verticalAlign=middle;resizable=0;points=[];autosize=1;strokeColor=none;fillColor=none;" parent="22" vertex="1">
                    <mxGeometry x="11" y="70" width="35" height="26" as="geometry"/>
                </mxCell>
                <mxCell id="23" value="" style="rounded=0;whiteSpace=wrap;html=1;" parent="1" vertex="1">
                    <mxGeometry x="701" y="154" width="67" height="477" as="geometry"/>
                </mxCell>
                <mxCell id="24" value="&lt;b&gt;odererchannel&lt;/b&gt;" style="text;html=1;align=center;verticalAlign=middle;resizable=0;points=[];autosize=1;strokeColor=none;fillColor=none;" parent="1" vertex="1">
                    <mxGeometry x="693" y="97" width="101" height="26" as="geometry"/>
                </mxCell>
                <mxCell id="25" value="" style="shape=flexArrow;endArrow=classic;html=1;endWidth=47;endSize=14.67;width=28;fillColor=#99CCFF;" edge="1" parent="1">
                    <mxGeometry width="50" height="50" relative="1" as="geometry">
                        <mxPoint x="593" y="227" as="sourcePoint"/>
                        <mxPoint x="901" y="227" as="targetPoint"/>
                    </mxGeometry>
                </mxCell>
                <mxCell id="31" value="" style="shape=flexArrow;endArrow=classic;html=1;endWidth=47;endSize=14.67;width=28;fillColor=#99CCFF;" edge="1" parent="1">
                    <mxGeometry width="50" height="50" relative="1" as="geometry">
                        <mxPoint x="597" y="392" as="sourcePoint"/>
                        <mxPoint x="903" y="392" as="targetPoint"/>
                    </mxGeometry>
                </mxCell>
                <mxCell id="32" value="" style="shape=flexArrow;endArrow=classic;html=1;endWidth=47;endSize=14.67;width=28;fillColor=#99CCFF;" edge="1" parent="1">
                    <mxGeometry width="50" height="50" relative="1" as="geometry">
                        <mxPoint x="597" y="570" as="sourcePoint"/>
                        <mxPoint x="903" y="570" as="targetPoint"/>
                    </mxGeometry>
                </mxCell>
                <mxCell id="33" value="" style="rounded=0;whiteSpace=wrap;html=1;fillColor=#66B2FF;" vertex="1" parent="1">
                    <mxGeometry x="914" y="152" width="67" height="502" as="geometry"/>
                </mxCell>
                <mxCell id="34" value="&lt;b&gt;financialchannel&lt;/b&gt;" style="text;html=1;align=center;verticalAlign=middle;resizable=0;points=[];autosize=1;strokeColor=none;fillColor=none;" vertex="1" parent="1">
                    <mxGeometry x="877" y="89" width="112" height="26" as="geometry"/>
                </mxCell>
            </root>
        </mxGraphModel>
    </diagram>
</mxfile>